org/keycloak/authorization/client/util/Throwables.class
org/keycloak/authorization/client/util/HttpMethodResponse$3$1.class
org/keycloak/authorization/client/AuthzClient.class
org/keycloak/authorization/client/AuthzClient$1.class
org/keycloak/authorization/client/resource/ProtectedResource$4.class
org/keycloak/authorization/client/util/HttpResponseProcessor.class
org/keycloak/authorization/client/resource/AuthorizationResource$1.class
org/keycloak/authorization/client/resource/PermissionResource$1.class
org/keycloak/authorization/client/util/HttpResponseException.class
org/keycloak/authorization/client/resource/PermissionResource$4.class
org/keycloak/authorization/client/AuthzClient$2.class
org/keycloak/authorization/client/representation/ServerConfiguration.class
org/keycloak/authorization/client/resource/PermissionResource$6$1.class
org/keycloak/authorization/client/util/HttpMethodAuthenticator.class
org/keycloak/authorization/client/util/TokenCallable.class
org/keycloak/authorization/client/util/HttpMethodResponse$2.class
org/keycloak/authorization/client/resource/ProtectedResource$1.class
org/keycloak/authorization/client/resource/PermissionResource$4$1.class
org/keycloak/authorization/client/resource/PolicyResource.class
org/keycloak/authorization/client/resource/PolicyResource$4$1.class
org/keycloak/authorization/client/util/HttpMethodResponse.class
org/keycloak/authorization/client/util/HttpMethod.class
org/keycloak/authorization/client/AuthorizationDeniedException.class
org/keycloak/authorization/client/resource/PolicyResource$5.class
org/keycloak/authorization/client/resource/PolicyResource$2.class
org/keycloak/authorization/client/resource/ProtectedResource$5$1.class
org/keycloak/authorization/client/util/HttpMethod$1.class
org/keycloak/authorization/client/resource/AuthorizationResource.class
org/keycloak/authorization/client/resource/PermissionResource$3.class
org/keycloak/authorization/client/util/HttpMethodResponse$2$1.class
org/keycloak/authorization/client/resource/ProtectedResource$2.class
org/keycloak/authorization/client/ClientAuthenticator.class
org/keycloak/authorization/client/util/HttpMethod$2.class
org/keycloak/authorization/client/util/HttpMethodResponse$1.class
org/keycloak/authorization/client/resource/PermissionResource.class
org/keycloak/authorization/client/resource/PermissionResource$6.class
org/keycloak/authorization/client/resource/ProtectionResource.class
org/keycloak/authorization/client/resource/PolicyResource$4.class
org/keycloak/authorization/client/resource/ProtectedResource$5.class
org/keycloak/authorization/client/resource/PolicyResource$3.class
org/keycloak/authorization/client/resource/PermissionResource$7.class
org/keycloak/authorization/client/Configuration.class
org/keycloak/authorization/client/representation/TokenIntrospectionResponse.class
org/keycloak/authorization/client/resource/PermissionResource$1$1.class
org/keycloak/authorization/client/resource/PermissionResource$5$1.class
org/keycloak/authorization/client/util/Http.class
org/keycloak/authorization/client/resource/PolicyResource$1.class
org/keycloak/authorization/client/resource/PermissionResource$3$1.class
org/keycloak/authorization/client/resource/PermissionResource$2.class
org/keycloak/authorization/client/Configuration$1.class
org/keycloak/authorization/client/resource/PermissionResource$5.class
org/keycloak/authorization/client/resource/ProtectedResource$6.class
org/keycloak/authorization/client/util/HttpMethodResponse$3.class
org/keycloak/authorization/client/ClientAuthorizationContext.class
org/keycloak/authorization/client/resource/PermissionResource$8.class
org/keycloak/authorization/client/resource/ProtectedResource$3.class
org/keycloak/authorization/client/resource/ProtectedResource.class
