org/keycloak/adapters/spi/LogoutError.class
org/keycloak/adapters/spi/AuthChallenge.class
org/keycloak/adapters/spi/InMemorySessionIdMapper.class
org/keycloak/adapters/spi/HttpFacade$Cookie.class
org/keycloak/adapters/spi/HttpFacade$Request.class
org/keycloak/adapters/spi/AdapterSessionStore.class
org/keycloak/adapters/spi/SessionIdMapper.class
org/keycloak/adapters/spi/KeycloakAccount.class
org/keycloak/adapters/spi/HttpFacade.class
org/keycloak/adapters/spi/HttpFacade$Response.class
org/keycloak/adapters/spi/SessionIdMapperUpdater.class
org/keycloak/adapters/spi/AuthOutcome.class
org/keycloak/adapters/spi/SessionIdMapperUpdater$1.class
org/keycloak/adapters/spi/AuthenticationError.class
org/keycloak/adapters/spi/SessionIdMapperUpdater$2.class
org/keycloak/adapters/spi/UserSessionManagement.class
