/Users/fcastro/Desktop/keycloak-pr/keycloak/adapters/oidc/spring-boot/src/main/java/org/keycloak/adapters/springboot/KeycloakAutoConfiguration.java
/Users/fcastro/Desktop/keycloak-pr/keycloak/adapters/oidc/spring-boot/src/main/java/org/keycloak/adapters/springboot/client/KeycloakRestTemplateCustomizer.java
/Users/fcastro/Desktop/keycloak-pr/keycloak/adapters/oidc/spring-boot/src/main/java/org/keycloak/adapters/springboot/client/KeycloakSecurityContextClientRequestInterceptor.java
