/Users/fcastro/Desktop/keycloak-pr/keycloak/adapters/saml/undertow/src/main/java/org/keycloak/adapters/saml/undertow/IdMapperUpdaterSessionListener.java
/Users/fcastro/Desktop/keycloak-pr/keycloak/adapters/saml/undertow/src/main/java/org/keycloak/adapters/saml/undertow/AbstractSamlAuthMech.java
/Users/fcastro/Desktop/keycloak-pr/keycloak/adapters/saml/undertow/src/main/java/org/keycloak/adapters/saml/undertow/ServletSamlSessionStore.java
/Users/fcastro/Desktop/keycloak-pr/keycloak/adapters/saml/undertow/src/main/java/org/keycloak/adapters/saml/undertow/UndertowSamlAuthenticator.java
/Users/fcastro/Desktop/keycloak-pr/keycloak/adapters/saml/undertow/src/main/java/org/keycloak/adapters/saml/undertow/ServletSamlAuthMech.java
/Users/fcastro/Desktop/keycloak-pr/keycloak/adapters/saml/undertow/src/main/java/org/keycloak/adapters/saml/undertow/SamlServletExtension.java
/Users/fcastro/Desktop/keycloak-pr/keycloak/adapters/saml/undertow/src/main/java/org/keycloak/adapters/saml/undertow/UndertowSamlEndpoint.java
