org/keycloak/client/registration/HttpUtil.class
org/keycloak/client/registration/ClientRepresentationMixIn.class
org/keycloak/client/registration/ClientRegistration.class
org/keycloak/client/registration/HttpErrorException.class
org/keycloak/client/registration/ClientRegistrationException.class
org/keycloak/client/registration/ClientRegistration$OIDCClientRegistration.class
org/keycloak/client/registration/Auth$BearerTokenAuth.class
org/keycloak/client/registration/Auth.class
org/keycloak/client/registration/ClientRegistration$ClientRegistrationBuilder.class
org/keycloak/client/registration/ClientRegistration$SAMLClientRegistration.class
org/keycloak/client/registration/OIDCClientRepresentationMixIn.class
org/keycloak/client/registration/Auth$BasicAuth.class
