org/keycloak/storage/ldap/mappers/HardcodedLDAPRoleStorageMapperFactory.class
org/keycloak/storage/ldap/mappers/FullNameLDAPStorageMapperFactory.class
org/keycloak/storage/ldap/idm/query/EscapeStrategy$3.class
org/keycloak/storage/ldap/mappers/LDAPConfigDecorator.class
org/keycloak/storage/ldap/mappers/membership/MembershipType.class
org/keycloak/storage/ldap/mappers/CertificateLDAPStorageMapperFactory.class
org/keycloak/storage/ldap/ReadonlyLDAPUserModelDelegate.class
org/keycloak/storage/ldap/LDAPStorageProviderFactory.class
org/keycloak/storage/ldap/mappers/LDAPMappersComparator.class
org/keycloak/storage/ldap/idm/store/ldap/LDAPOperationManager$6.class
org/keycloak/storage/ldap/mappers/msad/MSADUserAccountControlStorageMapper$MSADUserModelDelegate.class
org/keycloak/storage/ldap/mappers/HardcodedLDAPAttributeMapperFactory.class
org/keycloak/storage/ldap/mappers/HardcodedLDAPAttributeMapper.class
org/keycloak/storage/ldap/mappers/membership/CommonLDAPGroupMapperConfig.class
org/keycloak/storage/ldap/idm/query/internal/CustomLDAPFilter.class
org/keycloak/storage/ldap/idm/query/internal/NamedParameterCondition.class
org/keycloak/storage/ldap/idm/store/ldap/LDAPOperationManager$3.class
org/keycloak/storage/ldap/LDAPStorageProvider$1.class
org/keycloak/storage/ldap/LDAPIdentityStoreRegistry.class
org/keycloak/storage/ldap/mappers/membership/UserRolesRetrieveStrategy$LoadRolesByMember.class
org/keycloak/storage/ldap/mappers/LDAPTransaction.class
org/keycloak/storage/ldap/mappers/membership/group/GroupTreeResolver$GroupTreeResolveException.class
org/keycloak/storage/ldap/idm/query/internal/OrCondition.class
org/keycloak/storage/ldap/LDAPStorageProviderFactory$4.class
org/keycloak/storage/ldap/idm/model/LDAPDn$RDN.class
org/keycloak/storage/ldap/mappers/HardcodedLDAPGroupStorageMapper.class
org/keycloak/storage/ldap/mappers/UserAttributeLDAPStorageMapper$3.class
org/keycloak/storage/ldap/mappers/LDAPStorageMapper.class
org/keycloak/storage/ldap/LDAPStorageProviderFactory$1.class
org/keycloak/storage/ldap/idm/model/LDAPDn$1.class
org/keycloak/storage/ldap/mappers/membership/role/RoleLDAPStorageMapper$2.class
org/keycloak/storage/ldap/mappers/HardcodedAttributeMapper$1.class
org/keycloak/storage/ldap/mappers/LDAPStorageMapperManager.class
org/keycloak/storage/ldap/idm/store/ldap/LDAPOperationManager$4.class
org/keycloak/storage/ldap/idm/query/internal/LDAPQuery$1.class
org/keycloak/storage/ldap/idm/query/internal/LessThanCondition.class
org/keycloak/storage/ldap/idm/query/internal/BetweenCondition.class
org/keycloak/storage/ldap/mappers/membership/group/GroupTreeResolver$Group.class
org/keycloak/storage/ldap/mappers/UserAttributeLDAPStorageMapperFactory.class
org/keycloak/storage/ldap/idm/model/LDAPDn.class
org/keycloak/storage/ldap/idm/query/Condition.class
org/keycloak/storage/ldap/mappers/HardcodedLDAPGroupStorageMapperFactory.class
org/keycloak/storage/ldap/mappers/msadlds/MSADLDSUserAccountControlStorageMapperFactory.class
org/keycloak/storage/ldap/LDAPStorageProviderFactory$2.class
org/keycloak/storage/ldap/idm/query/internal/GreaterThanCondition.class
org/keycloak/storage/ldap/mappers/AbstractLDAPStorageMapper.class
org/keycloak/storage/ldap/mappers/membership/group/GroupLDAPStorageMapper$LDAPGroupMappingsUserDelegate.class
org/keycloak/storage/ldap/idm/store/ldap/LDAPContextManager$1.class
org/keycloak/storage/ldap/mappers/UserAttributeLDAPStorageMapper$2.class
org/keycloak/storage/ldap/mappers/membership/group/GroupTreeResolver$GroupTreeEntry.class
org/keycloak/storage/ldap/mappers/membership/LDAPGroupMapperMode.class
org/keycloak/storage/ldap/mappers/msad/MSADUserAccountControlStorageMapperFactory.class
org/keycloak/storage/ldap/LDAPIdentityStoreRegistry$LDAPIdentityStoreContext.class
org/keycloak/storage/ldap/idm/store/ldap/LDAPOperationManager.class
org/keycloak/storage/ldap/mappers/membership/role/RoleLDAPStorageMapper$1.class
org/keycloak/storage/ldap/idm/query/internal/LDAPQuery$PaginationContext.class
org/keycloak/storage/ldap/mappers/membership/role/RoleLDAPStorageMapperFactory.class
org/keycloak/storage/ldap/LDAPIdentityStoreRegistry$1.class
org/keycloak/storage/ldap/mappers/membership/UserRolesRetrieveStrategy$GetRolesFromUserMemberOfAttribute.class
org/keycloak/storage/ldap/idm/query/internal/InCondition.class
org/keycloak/storage/ldap/LDAPStorageProviderFactory$3.class
org/keycloak/storage/ldap/mappers/TxAwareLDAPUserModelDelegate.class
org/keycloak/storage/ldap/idm/store/ldap/LDAPOperationManager$5.class
org/keycloak/storage/ldap/idm/store/ldap/LDAPOperationManager$LdapOperation.class
org/keycloak/storage/ldap/idm/model/LDAPDn$SubEntry.class
org/keycloak/storage/ldap/idm/query/Sort.class
org/keycloak/storage/ldap/mappers/msad/LDAPServerPolicyHintsDecorator.class
org/keycloak/storage/ldap/idm/store/ldap/extended/PasswordModifyRequest.class
org/keycloak/storage/ldap/mappers/msadlds/MSADLDSUserAccountControlStorageMapper$MSADUserModelDelegate.class
org/keycloak/storage/ldap/mappers/msad/UserAccountControl.class
org/keycloak/storage/ldap/mappers/HardcodedLDAPRoleStorageMapper$1.class
org/keycloak/storage/ldap/LDAPStorageUserManager$ManagedUserEntry.class
org/keycloak/storage/ldap/idm/store/ldap/LDAPIdentityStore.class
org/keycloak/storage/ldap/mappers/UserAttributeLDAPStorageMapper$1.class
org/keycloak/storage/ldap/LDAPStorageProvider.class
org/keycloak/storage/ldap/idm/store/ldap/LDAPUtil.class
org/keycloak/storage/ldap/mappers/membership/group/GroupMapperConfig.class
org/keycloak/storage/ldap/LDAPWritesOnlyUserModelDelegate.class
org/keycloak/storage/ldap/idm/query/EscapeStrategy.class
org/keycloak/storage/ldap/mappers/LDAPOperationDecorator.class
org/keycloak/storage/ldap/idm/query/internal/EqualCondition.class
org/keycloak/storage/ldap/mappers/msadlds/MSADLDSUserAccountControlStorageMapper.class
org/keycloak/storage/ldap/mappers/LDAPStorageMapperSpi.class
org/keycloak/storage/ldap/mappers/membership/role/RoleLDAPStorageMapper$LDAPRoleMappingsUserDelegate.class
org/keycloak/storage/ldap/mappers/PasswordUpdateCallback.class
org/keycloak/storage/ldap/mappers/membership/MembershipType$1.class
org/keycloak/storage/ldap/mappers/UserAttributeLDAPStorageMapper.class
org/keycloak/storage/ldap/mappers/HardcodedAttributeMapper.class
org/keycloak/storage/ldap/mappers/LDAPStorageMapperFactory.class
org/keycloak/storage/ldap/mappers/HardcodedAttributeMapperFactory.class
org/keycloak/storage/ldap/idm/query/internal/LDAPQueryConditionsBuilder.class
org/keycloak/storage/ldap/mappers/FullNameLDAPStorageMapper$1.class
org/keycloak/storage/ldap/mappers/membership/CommonLDAPGroupMapper.class
org/keycloak/storage/ldap/idm/store/ldap/LDAPOperationManager$7.class
org/keycloak/storage/ldap/mappers/CertificateLDAPStorageMapper.class
org/keycloak/storage/ldap/mappers/AbstractLDAPStorageMapperFactory.class
org/keycloak/storage/ldap/mappers/membership/group/GroupLDAPStorageMapper$2.class
org/keycloak/storage/ldap/idm/query/internal/OctetStringEncoder.class
org/keycloak/storage/ldap/idm/query/internal/LDAPQuery.class
org/keycloak/storage/ldap/LDAPConfig.class
org/keycloak/storage/ldap/mappers/HardcodedLDAPGroupStorageMapper$1.class
org/keycloak/storage/ldap/mappers/FullNameLDAPStorageMapper.class
org/keycloak/storage/ldap/LDAPUtils$1.class
org/keycloak/storage/ldap/mappers/membership/MembershipType$2.class
org/keycloak/storage/ldap/mappers/membership/group/GroupTreeResolver.class
org/keycloak/storage/ldap/LDAPUtils.class
org/keycloak/storage/ldap/idm/query/EscapeStrategy$1.class
org/keycloak/storage/ldap/kerberos/LDAPProviderKerberosConfig.class
org/keycloak/storage/ldap/idm/store/ldap/LDAPOperationManager$1.class
org/keycloak/storage/ldap/idm/store/IdentityStore.class
org/keycloak/storage/ldap/LDAPStorageProviderFactory$1BooleanHolder.class
org/keycloak/storage/ldap/mappers/msad/MSADUserAccountControlStorageMapper.class
org/keycloak/storage/ldap/idm/store/ldap/LDAPContextManager.class
org/keycloak/storage/ldap/mappers/membership/group/GroupLDAPStorageMapper$1.class
org/keycloak/storage/ldap/mappers/membership/UserRolesRetrieveStrategy$LoadRolesByMemberRecursively.class
org/keycloak/storage/ldap/mappers/membership/group/GroupLDAPStorageMapperFactory.class
org/keycloak/storage/ldap/mappers/membership/role/RoleMapperConfig.class
org/keycloak/storage/ldap/mappers/membership/role/RoleLDAPStorageMapper.class
org/keycloak/storage/ldap/LDAPStorageUserManager.class
org/keycloak/storage/ldap/mappers/HardcodedLDAPRoleStorageMapper.class
org/keycloak/storage/ldap/idm/model/LDAPObject.class
org/keycloak/storage/ldap/mappers/membership/group/GroupLDAPStorageMapper.class
org/keycloak/storage/ldap/LDAPStorageProviderFactory$1QueryHolder.class
org/keycloak/storage/ldap/mappers/LDAPMappersComparator$ImportantFirstComparator.class
org/keycloak/storage/ldap/mappers/membership/UserRolesRetrieveStrategy.class
org/keycloak/storage/ldap/idm/query/EscapeStrategy$2.class
org/keycloak/storage/ldap/idm/store/ldap/LDAPOperationManager$2.class
