/Users/fcastro/Desktop/keycloak-pr/keycloak/adapters/oidc/jaxrs-oauth-client/src/main/java/org/keycloak/jaxrs/JaxrsBearerTokenFilterImpl.java
/Users/fcastro/Desktop/keycloak-pr/keycloak/adapters/oidc/jaxrs-oauth-client/src/main/java/org/keycloak/jaxrs/JaxrsBearerTokenFilter.java
/Users/fcastro/Desktop/keycloak-pr/keycloak/adapters/oidc/jaxrs-oauth-client/src/main/java/org/keycloak/jaxrs/JaxrsHttpFacade.java
/Users/fcastro/Desktop/keycloak-pr/keycloak/adapters/oidc/jaxrs-oauth-client/src/main/java/org/keycloak/jaxrs/OsgiJaxrsBearerTokenFilterImpl.java
/Users/fcastro/Desktop/keycloak-pr/keycloak/adapters/oidc/jaxrs-oauth-client/src/main/java/org/keycloak/jaxrs/JaxrsOAuthClient.java
