org/keycloak/adapters/springboot/client/KeycloakSecurityContextClientRequestInterceptorTest.class
org/keycloak/adapters/springboot/client/KeycloakRestTemplateCustomizerTest.class
org/keycloak/adapters/springboot/client/KeycloakSecurityContextClientRequestInterceptorTest$MarkerPrincipal.class
org/keycloak/adapters/springboot/client/KeycloakSecurityContextClientRequestInterceptorTest$1.class
