/Users/fcastro/Desktop/keycloak-pr/keycloak/model/build-processor/src/main/java/org/keycloak/models/map/annotations/IgnoreForEntityImplementationGenerator.java
/Users/fcastro/Desktop/keycloak-pr/keycloak/model/build-processor/src/main/java/org/keycloak/models/map/annotations/GenerateEntityImplementations.java
/Users/fcastro/Desktop/keycloak-pr/keycloak/model/build-processor/src/main/java/org/keycloak/models/map/processor/Util.java
/Users/fcastro/Desktop/keycloak-pr/keycloak/model/build-processor/src/main/java/org/keycloak/models/map/processor/GenerateEntityImplementationsProcessor.java
/Users/fcastro/Desktop/keycloak-pr/keycloak/model/build-processor/src/main/java/org/keycloak/models/map/processor/PrintWriterNoJavaLang.java
/Users/fcastro/Desktop/keycloak-pr/keycloak/model/build-processor/src/main/java/org/keycloak/models/map/annotations/GeneratedFieldType.java
/Users/fcastro/Desktop/keycloak-pr/keycloak/model/build-processor/src/main/java/org/keycloak/models/map/processor/FieldAccessorType.java
