org/keycloak/adapters/saml/servlet/SamlFilter$3.class
org/keycloak/adapters/saml/servlet/FilterSamlSessionStore.class
org/keycloak/adapters/saml/servlet/SamlFilter.class
org/keycloak/adapters/saml/servlet/SamlFilter$2.class
org/keycloak/adapters/saml/servlet/SamlFilter$1.class
