/Users/fcastro/Desktop/keycloak-pr/keycloak/testsuite/db-allocator-plugin/src/main/java/org/keycloak/testsuite/dballocator/AllocateDBMojo.java
/Users/fcastro/Desktop/keycloak-pr/keycloak/testsuite/db-allocator-plugin/src/main/java/org/keycloak/testsuite/dballocator/ReleaseDBMojo.java
/Users/fcastro/Desktop/keycloak-pr/keycloak/testsuite/db-allocator-plugin/src/main/java/org/keycloak/testsuite/dballocator/client/DBAllocatorServiceClient.java
/Users/fcastro/Desktop/keycloak-pr/keycloak/testsuite/db-allocator-plugin/src/main/java/org/keycloak/testsuite/dballocator/client/BackoffRetryPolicy.java
/Users/fcastro/Desktop/keycloak-pr/keycloak/testsuite/db-allocator-plugin/src/main/java/org/keycloak/testsuite/dballocator/client/retry/IncrementalBackoffRetryPolicy.java
/Users/fcastro/Desktop/keycloak-pr/keycloak/testsuite/db-allocator-plugin/src/main/java/org/keycloak/testsuite/dballocator/client/exceptions/DBAllocatorUnavailableException.java
/Users/fcastro/Desktop/keycloak-pr/keycloak/testsuite/db-allocator-plugin/src/main/java/org/keycloak/testsuite/dballocator/Constants.java
/Users/fcastro/Desktop/keycloak-pr/keycloak/testsuite/db-allocator-plugin/src/main/java/org/keycloak/testsuite/dballocator/client/data/EraseResult.java
/Users/fcastro/Desktop/keycloak-pr/keycloak/testsuite/db-allocator-plugin/src/main/java/org/keycloak/testsuite/dballocator/client/data/ReleaseResult.java
/Users/fcastro/Desktop/keycloak-pr/keycloak/testsuite/db-allocator-plugin/src/main/java/org/keycloak/testsuite/dballocator/client/data/AllocationResult.java
/Users/fcastro/Desktop/keycloak-pr/keycloak/testsuite/db-allocator-plugin/src/main/java/org/keycloak/testsuite/dballocator/client/exceptions/DBAllocatorException.java
