org/keycloak/adapters/wildfly/WildflyAuthenticationMechanism.class
org/keycloak/adapters/wildfly/SecurityInfoHelper.class
org/keycloak/adapters/wildfly/WildflyRequestAuthenticator.class
org/keycloak/adapters/wildfly/WildflyKeycloakServletExtension.class
