/Users/fcastro/Desktop/keycloak-pr/keycloak/wildfly/server-subsystem/src/main/java/org/keycloak/subsystem/server/extension/KeycloakSubsystemParser.java
/Users/fcastro/Desktop/keycloak-pr/keycloak/wildfly/server-subsystem/src/main/java/org/keycloak/subsystem/server/extension/ProviderResourceRemoveHandler.java
/Users/fcastro/Desktop/keycloak-pr/keycloak/wildfly/server-subsystem/src/main/java/org/keycloak/subsystem/server/extension/KeycloakSubsystemAdd.java
/Users/fcastro/Desktop/keycloak-pr/keycloak/wildfly/server-subsystem/src/main/java/org/keycloak/subsystem/server/extension/SpiResourceAddHandler.java
/Users/fcastro/Desktop/keycloak-pr/keycloak/wildfly/server-subsystem/src/main/java/org/keycloak/subsystem/server/extension/KeycloakServerDeploymentProcessor.java
/Users/fcastro/Desktop/keycloak-pr/keycloak/wildfly/server-subsystem/src/main/java/org/keycloak/subsystem/server/logging/KeycloakMessages.java
/Users/fcastro/Desktop/keycloak-pr/keycloak/wildfly/server-subsystem/src/main/java/org/keycloak/subsystem/server/extension/ScriptProviderDeploymentProcessor.java
/Users/fcastro/Desktop/keycloak-pr/keycloak/wildfly/server-subsystem/src/main/java/org/keycloak/subsystem/server/extension/ProviderResourceAddHandler.java
/Users/fcastro/Desktop/keycloak-pr/keycloak/wildfly/server-subsystem/src/main/java/org/keycloak/subsystem/server/extension/KeycloakAdapterConfigService.java
/Users/fcastro/Desktop/keycloak-pr/keycloak/wildfly/server-subsystem/src/main/java/org/keycloak/subsystem/server/extension/ThemeResourceRemoveHandler.java
/Users/fcastro/Desktop/keycloak-pr/keycloak/wildfly/server-subsystem/src/main/java/org/keycloak/subsystem/server/extension/MigrateJsonOperation.java
/Users/fcastro/Desktop/keycloak-pr/keycloak/wildfly/server-subsystem/src/main/java/org/keycloak/subsystem/server/extension/KeycloakSubsystemRemoveHandler.java
/Users/fcastro/Desktop/keycloak-pr/keycloak/wildfly/server-subsystem/src/main/java/org/keycloak/subsystem/server/extension/KeycloakExtension.java
/Users/fcastro/Desktop/keycloak-pr/keycloak/wildfly/server-subsystem/src/main/java/org/keycloak/subsystem/server/extension/SpiResourceRemoveHandler.java
/Users/fcastro/Desktop/keycloak-pr/keycloak/wildfly/server-subsystem/src/main/java/org/keycloak/subsystem/server/extension/ThemeResourceDefinition.java
/Users/fcastro/Desktop/keycloak-pr/keycloak/wildfly/server-subsystem/src/main/java/org/keycloak/subsystem/server/attributes/ProvidersListAttributeBuilder.java
/Users/fcastro/Desktop/keycloak-pr/keycloak/wildfly/server-subsystem/src/main/java/org/keycloak/subsystem/server/logging/KeycloakLogger.java
/Users/fcastro/Desktop/keycloak-pr/keycloak/wildfly/server-subsystem/src/main/java/org/keycloak/subsystem/server/attributes/ModulesListAttributeBuilder.java
/Users/fcastro/Desktop/keycloak-pr/keycloak/wildfly/server-subsystem/src/main/java/org/keycloak/subsystem/server/extension/ThemeResourceAddHandler.java
/Users/fcastro/Desktop/keycloak-pr/keycloak/wildfly/server-subsystem/src/main/java/org/keycloak/subsystem/server/extension/KeycloakSubsystemWriteAttributeHandler.java
/Users/fcastro/Desktop/keycloak-pr/keycloak/wildfly/server-subsystem/src/main/java/org/keycloak/subsystem/server/extension/KeycloakProviderDependencyProcessor.java
/Users/fcastro/Desktop/keycloak-pr/keycloak/wildfly/server-subsystem/src/main/java/org/keycloak/subsystem/server/extension/ServerUtil.java
/Users/fcastro/Desktop/keycloak-pr/keycloak/wildfly/server-subsystem/src/main/java/org/keycloak/subsystem/server/extension/KeycloakProviderDeploymentProcessor.java
/Users/fcastro/Desktop/keycloak-pr/keycloak/wildfly/server-subsystem/src/main/java/org/keycloak/subsystem/server/extension/JsonConfigConverter.java
/Users/fcastro/Desktop/keycloak-pr/keycloak/wildfly/server-subsystem/src/main/java/org/keycloak/subsystem/server/extension/SpiResourceDefinition.java
/Users/fcastro/Desktop/keycloak-pr/keycloak/wildfly/server-subsystem/src/main/java/org/keycloak/subsystem/server/extension/KeycloakSubsystemDefinition.java
/Users/fcastro/Desktop/keycloak-pr/keycloak/wildfly/server-subsystem/src/main/java/org/keycloak/subsystem/server/extension/ProviderResourceDefinition.java
