/Users/fcastro/Desktop/keycloak-pr/keycloak/adapters/oidc/spring-security/src/test/java/org/keycloak/adapters/springsecurity/filter/KeycloakCsrfRequestMatcherTest.java
/Users/fcastro/Desktop/keycloak-pr/keycloak/adapters/oidc/spring-security/src/test/java/org/keycloak/adapters/springsecurity/AdapterDeploymentContextFactoryBeanTest.java
/Users/fcastro/Desktop/keycloak-pr/keycloak/adapters/oidc/spring-security/src/test/java/org/keycloak/adapters/springsecurity/authentication/KeycloakLogoutHandlerTest.java
/Users/fcastro/Desktop/keycloak-pr/keycloak/adapters/oidc/spring-security/src/test/java/org/keycloak/adapters/springsecurity/filter/QueryParamPresenceRequestMatcherTest.java
/Users/fcastro/Desktop/keycloak-pr/keycloak/adapters/oidc/spring-security/src/test/java/org/keycloak/adapters/springsecurity/filter/KeycloakAuthenticationProcessingFilterTest.java
/Users/fcastro/Desktop/keycloak-pr/keycloak/adapters/oidc/spring-security/src/test/java/org/keycloak/adapters/springsecurity/authentication/HttpHeaderInspectingApiRequestMatcherTest.java
/Users/fcastro/Desktop/keycloak-pr/keycloak/adapters/oidc/spring-security/src/test/java/org/keycloak/adapters/springsecurity/token/SpringSecurityTokenStoreTest.java
/Users/fcastro/Desktop/keycloak-pr/keycloak/adapters/oidc/spring-security/src/test/java/org/keycloak/adapters/springsecurity/facade/WrappedHttpServletRequestTest.java
/Users/fcastro/Desktop/keycloak-pr/keycloak/adapters/oidc/spring-security/src/test/java/org/keycloak/adapters/springsecurity/token/SpringSecurityAdapterTokenStoreFactoryTest.java
/Users/fcastro/Desktop/keycloak-pr/keycloak/adapters/oidc/spring-security/src/test/java/org/keycloak/adapters/springsecurity/filter/KeycloakPreAuthActionsFilterTest.java
/Users/fcastro/Desktop/keycloak-pr/keycloak/adapters/oidc/spring-security/src/test/java/org/keycloak/adapters/springsecurity/authentication/KeycloakAuthenticationProviderTest.java
/Users/fcastro/Desktop/keycloak-pr/keycloak/adapters/oidc/spring-security/src/test/java/org/keycloak/adapters/springsecurity/authentication/SpringSecurityRequestAuthenticatorTest.java
/Users/fcastro/Desktop/keycloak-pr/keycloak/adapters/oidc/spring-security/src/test/java/org/keycloak/adapters/springsecurity/client/KeycloakClientRequestFactoryTest.java
/Users/fcastro/Desktop/keycloak-pr/keycloak/adapters/oidc/spring-security/src/test/java/org/keycloak/adapters/springsecurity/authentication/KeycloakAuthenticationEntryPointTest.java
/Users/fcastro/Desktop/keycloak-pr/keycloak/adapters/oidc/spring-security/src/test/java/org/keycloak/adapters/springsecurity/facade/SimpleHttpFacadeTest.java
/Users/fcastro/Desktop/keycloak-pr/keycloak/adapters/oidc/spring-security/src/test/java/org/keycloak/adapters/springsecurity/facade/WrappedHttpServletResponseTest.java
