org/keycloak/adapters/saml/wildfly/infinispan/SsoSessionCacheListener$1.class
org/keycloak/adapters/saml/wildfly/infinispan/SsoSessionCacheListener$4.class
org/keycloak/adapters/saml/wildfly/infinispan/SsoSessionCacheListener$3.class
org/keycloak/adapters/saml/wildfly/WildflySamlSessionStore.class
org/keycloak/adapters/saml/wildfly/WildflySamlExtension.class
org/keycloak/adapters/saml/wildfly/infinispan/SsoCacheSessionIdMapperUpdater.class
org/keycloak/adapters/saml/wildfly/infinispan/SsoSessionCacheListener.class
org/keycloak/adapters/saml/wildfly/WildflySamlAuthMech.class
org/keycloak/adapters/saml/wildfly/infinispan/InfinispanSessionCacheIdMapperUpdater.class
org/keycloak/adapters/saml/wildfly/SecurityInfoHelper.class
org/keycloak/adapters/saml/wildfly/infinispan/SsoSessionCacheListener$2.class
