org/keycloak/adapters/saml/PropertiesBasedRoleMapperTest.class
org/keycloak/adapters/cloned/HttpAdapterUtilsTest.class
org/keycloak/adapters/saml/descriptor/parsers/SamlDescriptorIDPKeysExtractorTest.class
org/keycloak/adapters/saml/PropertiesBasedRoleMapperTest$1.class
org/keycloak/adapters/saml/config/parsers/KeycloakSamlAdapterXMLParserTest.class
