org/keycloak/adapters/springsecurity/authentication/KeycloakAuthenticationFailureHandler.class
org/keycloak/adapters/springsecurity/authentication/KeycloakLogoutHandler.class
org/keycloak/adapters/springsecurity/filter/AdapterStateCookieRequestMatcher.class
org/keycloak/adapters/springsecurity/authentication/KeycloakAuthenticationEntryPoint.class
org/keycloak/adapters/springsecurity/account/KeycloakRole.class
org/keycloak/adapters/springsecurity/management/SessionManagementStrategy.class
org/keycloak/adapters/springsecurity/authentication/SpringSecurityRequestAuthenticator.class
org/keycloak/adapters/springsecurity/config/KeycloakSpringConfigResolverWrapper.class
org/keycloak/adapters/springsecurity/filter/KeycloakAuthenticationProcessingFilter.class
org/keycloak/adapters/springsecurity/facade/WrappedHttpServletResponse.class
org/keycloak/adapters/springsecurity/KeycloakSecurityComponents.class
org/keycloak/adapters/springsecurity/KeycloakConfiguration.class
org/keycloak/adapters/springsecurity/filter/KeycloakSecurityContextRequestFilter.class
org/keycloak/adapters/springsecurity/account/SimpleKeycloakAccount.class
org/keycloak/adapters/springsecurity/authentication/KeycloakAuthenticationProvider.class
org/keycloak/adapters/springsecurity/management/HttpSessionManager.class
org/keycloak/adapters/springsecurity/AdapterDeploymentContextFactoryBean.class
org/keycloak/adapters/springsecurity/filter/KeycloakPreAuthActionsFilter$PreAuthActionsHandlerFactory.class
org/keycloak/adapters/springsecurity/registration/NodeManager.class
org/keycloak/adapters/springsecurity/KeycloakAuthenticationException.class
org/keycloak/adapters/springsecurity/authentication/RequestAuthenticatorFactory.class
org/keycloak/adapters/springsecurity/token/SpringSecurityAdapterTokenStoreFactory.class
org/keycloak/adapters/springsecurity/authentication/KeycloakAuthenticationSuccessHandler.class
org/keycloak/adapters/springsecurity/client/KeycloakClientRequestFactory.class
org/keycloak/adapters/springsecurity/authentication/KeycloakCookieBasedRedirect.class
org/keycloak/adapters/springsecurity/filter/KeycloakPreAuthActionsFilter.class
org/keycloak/adapters/springsecurity/token/AdapterTokenStoreFactory.class
org/keycloak/adapters/springsecurity/token/SpringSecurityTokenStore.class
org/keycloak/adapters/springsecurity/config/KeycloakWebSecurityConfigurerAdapter.class
org/keycloak/adapters/springsecurity/facade/WrappedHttpServletRequest.class
org/keycloak/adapters/springsecurity/filter/KeycloakAuthenticatedActionsFilter.class
org/keycloak/adapters/springsecurity/token/KeycloakAuthenticationToken.class
org/keycloak/adapters/springsecurity/management/LocalSessionManagementStrategy.class
org/keycloak/adapters/springsecurity/facade/SimpleHttpFacade.class
org/keycloak/adapters/springsecurity/filter/KeycloakCsrfRequestMatcher.class
org/keycloak/adapters/springsecurity/filter/QueryParamPresenceRequestMatcher.class
org/keycloak/adapters/springsecurity/authentication/HttpHeaderInspectingApiRequestMatcher.class
org/keycloak/adapters/springsecurity/token/SpringSecurityCookieTokenStore.class
org/keycloak/adapters/springsecurity/client/KeycloakRestTemplate.class
org/keycloak/adapters/springsecurity/authentication/SpringSecurityRequestAuthenticatorFactory.class
