/Users/fcastro/Desktop/keycloak-pr/keycloak/adapters/oidc/adapter-core/src/test/java/org/keycloak/adapters/RefreshableKeycloakSecurityContextTest.java
/Users/fcastro/Desktop/keycloak-pr/keycloak/adapters/oidc/adapter-core/src/test/java/org/keycloak/adapters/KeycloakDeploymentTest.java
/Users/fcastro/Desktop/keycloak-pr/keycloak/adapters/oidc/adapter-core/src/test/java/org/keycloak/adapters/KeycloakDeploymentBuilderTest.java
