/Users/fcastro/Desktop/keycloak-pr/keycloak/testsuite/integration-arquillian/util/src/main/java/org/keycloak/testsuite/utils/tls/TLSUtils.java
/Users/fcastro/Desktop/keycloak-pr/keycloak/testsuite/integration-arquillian/util/src/main/java/org/keycloak/testsuite/utils/arquillian/DeploymentArchiveProcessorUtils.java
/Users/fcastro/Desktop/keycloak-pr/keycloak/testsuite/integration-arquillian/util/src/main/java/org/keycloak/testsuite/utils/arquillian/ContainerConstants.java
/Users/fcastro/Desktop/keycloak-pr/keycloak/testsuite/integration-arquillian/util/src/main/java/org/keycloak/testsuite/utils/io/IOUtil.java
/Users/fcastro/Desktop/keycloak-pr/keycloak/testsuite/integration-arquillian/util/src/main/java/org/keycloak/testsuite/utils/undertow/UndertowDeployerHelper.java
/Users/fcastro/Desktop/keycloak-pr/keycloak/testsuite/integration-arquillian/util/src/main/java/org/keycloak/testsuite/utils/arquillian/KeycloakDependenciesResolver.java
/Users/fcastro/Desktop/keycloak-pr/keycloak/testsuite/integration-arquillian/util/src/main/java/org/keycloak/testsuite/utils/arquillian/tomcat/TomcatDeploymentArchiveProcessorUtils.java
/Users/fcastro/Desktop/keycloak-pr/keycloak/testsuite/integration-arquillian/util/src/main/java/org/keycloak/testsuite/utils/undertow/SimpleWebXmlParser.java
/Users/fcastro/Desktop/keycloak-pr/keycloak/testsuite/integration-arquillian/util/src/main/java/org/keycloak/testsuite/utils/arquillian/fuse/KeycloakOSGiApplicationArchiveProcessor.java
/Users/fcastro/Desktop/keycloak-pr/keycloak/testsuite/integration-arquillian/util/src/main/java/org/keycloak/testsuite/utils/annotation/UseServletFilter.java
/Users/fcastro/Desktop/keycloak-pr/keycloak/testsuite/integration-arquillian/util/src/main/java/org/keycloak/testsuite/utils/undertow/UndertowWarClassLoader.java
/Users/fcastro/Desktop/keycloak-pr/keycloak/testsuite/integration-arquillian/util/src/main/java/org/keycloak/testsuite/utils/arquillian/tomcat/TomcatAppServerConfigurationUtils.java
/Users/fcastro/Desktop/keycloak-pr/keycloak/testsuite/integration-arquillian/util/src/main/java/org/keycloak/testsuite/utils/arquillian/fuse/CustomFuseContainer.java
/Users/fcastro/Desktop/keycloak-pr/keycloak/testsuite/integration-arquillian/util/src/main/java/org/keycloak/testsuite/utils/fuse/FuseUtils.java
