/Users/fcastro/Desktop/keycloak-pr/keycloak/adapters/oidc/osgi-adapter/src/main/java/org/keycloak/adapters/osgi/PathBasedKeycloakConfigResolver.java
/Users/fcastro/Desktop/keycloak-pr/keycloak/adapters/oidc/osgi-adapter/src/main/java/org/keycloak/adapters/osgi/PaxWebIntegrationService.java
/Users/fcastro/Desktop/keycloak-pr/keycloak/adapters/oidc/osgi-adapter/src/main/java/org/keycloak/adapters/osgi/ServletReregistrationService.java
/Users/fcastro/Desktop/keycloak-pr/keycloak/adapters/oidc/osgi-adapter/src/main/java/org/keycloak/adapters/osgi/BundleBasedKeycloakConfigResolver.java
/Users/fcastro/Desktop/keycloak-pr/keycloak/adapters/oidc/osgi-adapter/src/main/java/org/keycloak/adapters/osgi/PaxWebSecurityConstraintMapping.java
/Users/fcastro/Desktop/keycloak-pr/keycloak/adapters/oidc/osgi-adapter/src/main/java/org/keycloak/adapters/osgi/HierarchicalPathBasedKeycloakConfigResolver.java
