org/keycloak/utils/SearchQueryUtilsTest.class
org/keycloak/vault/VaultTranscriberTest$TestVaultProvider.class
org/keycloak/vault/PlainTextVaultProviderFactoryTest.class
org/keycloak/social/openshift/OpenshiftV4IdentityProviderTest.class
org/keycloak/authentication/authenticators/x509/CertificateValidatorTest.class
org/keycloak/test/broker/oidc/AbstractOAuth2IdentityProviderTest.class
org/keycloak/test/ResponseTypeTest.class
org/keycloak/forms/login/freemarker/model/LoginRealmBeanTest.class
org/keycloak/test/broker/saml/SAMLParsingTest.class
org/keycloak/theme/KeycloakSanitizerTest.class
org/keycloak/theme/beans/LinkExpirationFormatterMethodTest.class
org/keycloak/vault/Scenario.class
org/keycloak/social/openshift/OpenshiftV3IdentityProviderTest.class
org/keycloak/vault/VaultTranscriberTest.class
org/keycloak/userprofile/validator/UsernameProhibitedCharactersValidatorTest.class
org/keycloak/authentication/authenticators/x509/CertificatePemIdentityExtractorTest.class
org/keycloak/connections/httpclient/DefaultHttpClientFactoryTest.class
org/keycloak/connections/httpclient/ProxyMappingsTest.class
org/keycloak/procotol/docker/installation/DockerComposeYamlInstallationProviderTest.class
org/keycloak/vault/PlainTextVaultProviderFactoryTest$VaultConfig.class
org/keycloak/utils/RegexUtilsTest.class
org/keycloak/test/broker/saml/SAMLDataMarshallerTest.class
org/keycloak/vault/PlainTextVaultProviderFactoryTest$1.class
org/keycloak/theme/beans/MessageFormatterMethodTest.class
org/keycloak/procotol/docker/installation/DockerKeyIdentifierTest.class
org/keycloak/theme/PropertiesUtilTest.class
org/keycloak/authentication/authenticators/x509/X509AuthenticatorConfigModelTest.class
org/keycloak/services/clientregistration/policies/impl/HostsTest.class
org/keycloak/test/ValidationTest.class
org/keycloak/test/broker/oidc/mappers/AbstractJsonUserAttributeMapperTest.class
org/keycloak/test/login/freemarker/model/IdentityProviderBeanTest.class
org/keycloak/services/clientregistration/policies/impl/HostsTest$Foo.class
org/keycloak/vault/PlainTextVaultProviderTest.class
org/keycloak/vault/SecretContains.class
org/keycloak/utils/CookieHelperTest.class
org/keycloak/test/RealmKeyGenerator.class
org/keycloak/social/openshift/OpenshiftV4IdentityProviderTest$1.class
org/keycloak/services/clientregistration/policies/impl/HostsTest$1.class
org/keycloak/protocol/oidc/mappers/OIDCAttributeMapperHelperTest.class
org/keycloak/authentication/authenticators/x509/SubjectAltNameIdentityExtractorTest.class
org/keycloak/test/broker/oidc/AbstractOAuth2IdentityProviderTest$TestProvider.class
org/keycloak/social/openshift/OpenshiftV4IdentityProviderTest$2.class
org/keycloak/userprofile/validator/PersonNameProhibitedCharactersValidatorTest.class
org/keycloak/protocol/saml/SamlProtocolUtilsTest.class
