/Users/fcastro/Desktop/keycloak-pr/keycloak/services/src/test/java/org/keycloak/utils/CookieHelperTest.java
/Users/fcastro/Desktop/keycloak-pr/keycloak/services/src/test/java/org/keycloak/protocol/saml/SamlProtocolUtilsTest.java
/Users/fcastro/Desktop/keycloak-pr/keycloak/services/src/test/java/org/keycloak/procotol/docker/installation/DockerComposeYamlInstallationProviderTest.java
/Users/fcastro/Desktop/keycloak-pr/keycloak/services/src/test/java/org/keycloak/test/broker/oidc/mappers/AbstractJsonUserAttributeMapperTest.java
/Users/fcastro/Desktop/keycloak-pr/keycloak/services/src/test/java/org/keycloak/test/ValidationTest.java
/Users/fcastro/Desktop/keycloak-pr/keycloak/services/src/test/java/org/keycloak/test/broker/saml/SAMLDataMarshallerTest.java
/Users/fcastro/Desktop/keycloak-pr/keycloak/services/src/test/java/org/keycloak/social/openshift/OpenshiftV4IdentityProviderTest.java
/Users/fcastro/Desktop/keycloak-pr/keycloak/services/src/test/java/org/keycloak/theme/PropertiesUtilTest.java
/Users/fcastro/Desktop/keycloak-pr/keycloak/services/src/test/java/org/keycloak/test/broker/oidc/AbstractOAuth2IdentityProviderTest.java
/Users/fcastro/Desktop/keycloak-pr/keycloak/services/src/test/java/org/keycloak/authentication/authenticators/x509/CertificatePemIdentityExtractorTest.java
/Users/fcastro/Desktop/keycloak-pr/keycloak/services/src/test/java/org/keycloak/theme/beans/MessageFormatterMethodTest.java
/Users/fcastro/Desktop/keycloak-pr/keycloak/services/src/test/java/org/keycloak/utils/SearchQueryUtilsTest.java
/Users/fcastro/Desktop/keycloak-pr/keycloak/services/src/test/java/org/keycloak/theme/KeycloakSanitizerTest.java
/Users/fcastro/Desktop/keycloak-pr/keycloak/services/src/test/java/org/keycloak/userprofile/validator/UsernameProhibitedCharactersValidatorTest.java
/Users/fcastro/Desktop/keycloak-pr/keycloak/services/src/test/java/org/keycloak/vault/VaultTranscriberTest.java
/Users/fcastro/Desktop/keycloak-pr/keycloak/services/src/test/java/org/keycloak/vault/SecretContains.java
/Users/fcastro/Desktop/keycloak-pr/keycloak/services/src/test/java/org/keycloak/utils/RegexUtilsTest.java
/Users/fcastro/Desktop/keycloak-pr/keycloak/services/src/test/java/org/keycloak/connections/httpclient/ProxyMappingsTest.java
/Users/fcastro/Desktop/keycloak-pr/keycloak/services/src/test/java/org/keycloak/vault/PlainTextVaultProviderTest.java
/Users/fcastro/Desktop/keycloak-pr/keycloak/services/src/test/java/org/keycloak/authentication/authenticators/x509/CertificateValidatorTest.java
/Users/fcastro/Desktop/keycloak-pr/keycloak/services/src/test/java/org/keycloak/vault/PlainTextVaultProviderFactoryTest.java
/Users/fcastro/Desktop/keycloak-pr/keycloak/services/src/test/java/org/keycloak/test/RealmKeyGenerator.java
/Users/fcastro/Desktop/keycloak-pr/keycloak/services/src/test/java/org/keycloak/procotol/docker/installation/DockerKeyIdentifierTest.java
/Users/fcastro/Desktop/keycloak-pr/keycloak/services/src/test/java/org/keycloak/connections/httpclient/DefaultHttpClientFactoryTest.java
/Users/fcastro/Desktop/keycloak-pr/keycloak/services/src/test/java/org/keycloak/forms/login/freemarker/model/LoginRealmBeanTest.java
/Users/fcastro/Desktop/keycloak-pr/keycloak/services/src/test/java/org/keycloak/vault/Scenario.java
/Users/fcastro/Desktop/keycloak-pr/keycloak/services/src/test/java/org/keycloak/userprofile/validator/PersonNameProhibitedCharactersValidatorTest.java
/Users/fcastro/Desktop/keycloak-pr/keycloak/services/src/test/java/org/keycloak/test/broker/saml/SAMLParsingTest.java
/Users/fcastro/Desktop/keycloak-pr/keycloak/services/src/test/java/org/keycloak/test/ResponseTypeTest.java
/Users/fcastro/Desktop/keycloak-pr/keycloak/services/src/test/java/org/keycloak/protocol/oidc/mappers/OIDCAttributeMapperHelperTest.java
/Users/fcastro/Desktop/keycloak-pr/keycloak/services/src/test/java/org/keycloak/authentication/authenticators/x509/SubjectAltNameIdentityExtractorTest.java
/Users/fcastro/Desktop/keycloak-pr/keycloak/services/src/test/java/org/keycloak/social/openshift/OpenshiftV3IdentityProviderTest.java
/Users/fcastro/Desktop/keycloak-pr/keycloak/services/src/test/java/org/keycloak/services/clientregistration/policies/impl/HostsTest.java
/Users/fcastro/Desktop/keycloak-pr/keycloak/services/src/test/java/org/keycloak/test/login/freemarker/model/IdentityProviderBeanTest.java
/Users/fcastro/Desktop/keycloak-pr/keycloak/services/src/test/java/org/keycloak/authentication/authenticators/x509/X509AuthenticatorConfigModelTest.java
/Users/fcastro/Desktop/keycloak-pr/keycloak/services/src/test/java/org/keycloak/theme/beans/LinkExpirationFormatterMethodTest.java
