org/keycloak/adapters/osgi/undertow/CxfKeycloakAuthHandler.class
org/keycloak/adapters/osgi/undertow/KeycloakAuthenticatorService.class
org/keycloak/adapters/osgi/undertow/PaxWebIntegrationService.class
org/keycloak/adapters/osgi/undertow/CxfKeycloakAuthHandler$1.class
org/keycloak/adapters/osgi/undertow/PaxWebIntegrationService$1.class
