org/keycloak/adapters/jetty/spi/JettySessionManager.class
org/keycloak/adapters/jetty/spi/JettyHttpFacade$RequestFacade.class
org/keycloak/adapters/jetty/spi/WrappingSessionHandler.class
org/keycloak/adapters/jetty/spi/JettyHttpFacade.class
org/keycloak/adapters/jetty/spi/JettyUserSessionManagement.class
org/keycloak/adapters/jetty/spi/JettyHttpFacade$ResponseFacade.class
