org/keycloak/adapters/undertow/UndertowHttpFacade$ResponseFacade.class
org/keycloak/adapters/undertow/SavedRequest.class
org/keycloak/adapters/undertow/UndertowHttpFacade$RequestFacade.class
org/keycloak/adapters/undertow/UndertowHttpFacade$RequestFacade$1.class
org/keycloak/adapters/undertow/UndertowUserSessionManagement$2.class
org/keycloak/adapters/undertow/SessionManagementBridge.class
org/keycloak/adapters/undertow/UndertowHttpFacade$RequestFacade$1$1.class
org/keycloak/adapters/undertow/ServletHttpFacade.class
org/keycloak/adapters/undertow/ChangeSessionId.class
org/keycloak/adapters/undertow/UndertowUserSessionManagement$1.class
org/keycloak/adapters/undertow/UndertowUserSessionManagement.class
org/keycloak/adapters/undertow/UndertowHttpFacade.class
org/keycloak/adapters/undertow/ServletHttpFacade$ResponseFacade.class
org/keycloak/adapters/undertow/ServletHttpFacade$RequestFacade.class
org/keycloak/adapters/undertow/UndertowUserSessionManagement$3.class
