/Users/fcastro/Desktop/keycloak-pr/keycloak/adapters/spi/undertow-adapter-spi/src/main/java/org/keycloak/adapters/undertow/ServletHttpFacade.java
/Users/fcastro/Desktop/keycloak-pr/keycloak/adapters/spi/undertow-adapter-spi/src/main/java/org/keycloak/adapters/undertow/UndertowHttpFacade.java
/Users/fcastro/Desktop/keycloak-pr/keycloak/adapters/spi/undertow-adapter-spi/src/main/java/org/keycloak/adapters/undertow/UndertowUserSessionManagement.java
/Users/fcastro/Desktop/keycloak-pr/keycloak/adapters/spi/undertow-adapter-spi/src/main/java/org/keycloak/adapters/undertow/SessionManagementBridge.java
/Users/fcastro/Desktop/keycloak-pr/keycloak/adapters/spi/undertow-adapter-spi/src/main/java/org/keycloak/adapters/undertow/SavedRequest.java
/Users/fcastro/Desktop/keycloak-pr/keycloak/adapters/spi/undertow-adapter-spi/src/main/java/org/keycloak/adapters/undertow/ChangeSessionId.java
