/Users/fcastro/Desktop/keycloak-pr/keycloak/federation/sssd/src/main/java/org/jvnet/libpam/UnixUser.java
/Users/fcastro/Desktop/keycloak-pr/keycloak/federation/sssd/src/main/java/org/freedesktop/dbus/DBusSigHandler.java
/Users/fcastro/Desktop/keycloak-pr/keycloak/federation/sssd/src/main/java/cx/ath/matthew/unix/NotConnectedException.java
/Users/fcastro/Desktop/keycloak-pr/keycloak/federation/sssd/src/main/java/org/jvnet/libpam/impl/LinuxPasswd.java
/Users/fcastro/Desktop/keycloak-pr/keycloak/federation/sssd/src/main/java/org/freedesktop/sssd/infopipe/InfoPipe.java
/Users/fcastro/Desktop/keycloak-pr/keycloak/federation/sssd/src/main/java/org/freedesktop/dbus/StrongReference.java
/Users/fcastro/Desktop/keycloak-pr/keycloak/federation/sssd/src/main/java/org/freedesktop/dbus/UInt64.java
/Users/fcastro/Desktop/keycloak-pr/keycloak/federation/sssd/src/main/java/org/keycloak/federation/sssd/impl/PAMAuthenticator.java
/Users/fcastro/Desktop/keycloak-pr/keycloak/federation/sssd/src/main/java/org/freedesktop/dbus/Error.java
/Users/fcastro/Desktop/keycloak-pr/keycloak/federation/sssd/src/main/java/org/freedesktop/dbus/Struct.java
/Users/fcastro/Desktop/keycloak-pr/keycloak/federation/sssd/src/main/java/cx/ath/matthew/unix/UnixSocket.java
/Users/fcastro/Desktop/keycloak-pr/keycloak/federation/sssd/src/main/java/org/freedesktop/dbus/DBusAsyncReply.java
/Users/fcastro/Desktop/keycloak-pr/keycloak/federation/sssd/src/main/java/org/freedesktop/dbus/exceptions/FatalException.java
/Users/fcastro/Desktop/keycloak-pr/keycloak/federation/sssd/src/main/java/org/freedesktop/dbus/EfficientQueue.java
/Users/fcastro/Desktop/keycloak-pr/keycloak/federation/sssd/src/main/java/org/freedesktop/DBus.java
/Users/fcastro/Desktop/keycloak-pr/keycloak/federation/sssd/src/main/java/org/freedesktop/dbus/TypeSignature.java
/Users/fcastro/Desktop/keycloak-pr/keycloak/federation/sssd/src/main/java/org/freedesktop/dbus/AbstractConnection.java
/Users/fcastro/Desktop/keycloak-pr/keycloak/federation/sssd/src/main/java/org/freedesktop/dbus/UInt32.java
/Users/fcastro/Desktop/keycloak-pr/keycloak/federation/sssd/src/main/java/cx/ath/matthew/LibraryLoader.java
/Users/fcastro/Desktop/keycloak-pr/keycloak/federation/sssd/src/main/java/org/freedesktop/dbus/UInt16.java
/Users/fcastro/Desktop/keycloak-pr/keycloak/federation/sssd/src/main/java/cx/ath/matthew/unix/UnixIOException.java
/Users/fcastro/Desktop/keycloak-pr/keycloak/federation/sssd/src/main/java/org/freedesktop/dbus/exceptions/NotConnected.java
/Users/fcastro/Desktop/keycloak-pr/keycloak/federation/sssd/src/main/java/org/jvnet/libpam/impl/BSDPasswd.java
/Users/fcastro/Desktop/keycloak-pr/keycloak/federation/sssd/src/main/java/cx/ath/matthew/utils/Hexdump.java
/Users/fcastro/Desktop/keycloak-pr/keycloak/federation/sssd/src/main/java/org/freedesktop/dbus/ExportedObject.java
/Users/fcastro/Desktop/keycloak-pr/keycloak/federation/sssd/src/main/java/org/freedesktop/sssd/infopipe/Cache.java
/Users/fcastro/Desktop/keycloak-pr/keycloak/federation/sssd/src/main/java/org/freedesktop/dbus/RemoteObject.java
/Users/fcastro/Desktop/keycloak-pr/keycloak/federation/sssd/src/main/java/org/freedesktop/dbus/DBusMatchRule.java
/Users/fcastro/Desktop/keycloak-pr/keycloak/federation/sssd/src/main/java/org/freedesktop/dbus/exceptions/UnknownTypeCodeException.java
/Users/fcastro/Desktop/keycloak-pr/keycloak/federation/sssd/src/main/java/org/freedesktop/dbus/BusAddress.java
/Users/fcastro/Desktop/keycloak-pr/keycloak/federation/sssd/src/main/java/org/freedesktop/dbus/MessageWriter.java
/Users/fcastro/Desktop/keycloak-pr/keycloak/federation/sssd/src/main/java/org/freedesktop/dbus/exceptions/DBusException.java
/Users/fcastro/Desktop/keycloak-pr/keycloak/federation/sssd/src/main/java/org/freedesktop/dbus/Position.java
/Users/fcastro/Desktop/keycloak-pr/keycloak/federation/sssd/src/main/java/org/freedesktop/dbus/DBusInterfaceName.java
/Users/fcastro/Desktop/keycloak-pr/keycloak/federation/sssd/src/main/java/org/freedesktop/dbus/MethodCall.java
/Users/fcastro/Desktop/keycloak-pr/keycloak/federation/sssd/src/main/java/org/freedesktop/dbus/ArrayFrob.java
/Users/fcastro/Desktop/keycloak-pr/keycloak/federation/sssd/src/main/java/org/keycloak/federation/sssd/SSSDFederationProvider.java
/Users/fcastro/Desktop/keycloak-pr/keycloak/federation/sssd/src/main/java/cx/ath/matthew/unix/USInputStream.java
/Users/fcastro/Desktop/keycloak-pr/keycloak/federation/sssd/src/main/java/org/freedesktop/dbus/Message.java
/Users/fcastro/Desktop/keycloak-pr/keycloak/federation/sssd/src/main/java/org/freedesktop/dbus/DBusCallInfo.java
/Users/fcastro/Desktop/keycloak-pr/keycloak/federation/sssd/src/main/java/org/freedesktop/dbus/DBusSignal.java
/Users/fcastro/Desktop/keycloak-pr/keycloak/federation/sssd/src/main/java/org/freedesktop/dbus/MessageReader.java
/Users/fcastro/Desktop/keycloak-pr/keycloak/federation/sssd/src/main/java/org/freedesktop/dbus/Gettext.java
/Users/fcastro/Desktop/keycloak-pr/keycloak/federation/sssd/src/main/java/org/freedesktop/dbus/Marshalling.java
/Users/fcastro/Desktop/keycloak-pr/keycloak/federation/sssd/src/main/java/org/freedesktop/dbus/types/DBusMapType.java
/Users/fcastro/Desktop/keycloak-pr/keycloak/federation/sssd/src/main/java/org/jvnet/libpam/impl/FreeBSDCLibrary.java
/Users/fcastro/Desktop/keycloak-pr/keycloak/federation/sssd/src/main/java/org/freedesktop/dbus/RemoteInvocationHandler.java
/Users/fcastro/Desktop/keycloak-pr/keycloak/federation/sssd/src/main/java/org/freedesktop/dbus/MethodTuple.java
/Users/fcastro/Desktop/keycloak-pr/keycloak/federation/sssd/src/main/java/org/freedesktop/dbus/Tuple.java
/Users/fcastro/Desktop/keycloak-pr/keycloak/federation/sssd/src/main/java/org/freedesktop/dbus/Container.java
/Users/fcastro/Desktop/keycloak-pr/keycloak/federation/sssd/src/main/java/org/freedesktop/dbus/CallbackHandler.java
/Users/fcastro/Desktop/keycloak-pr/keycloak/federation/sssd/src/main/java/org/freedesktop/dbus/exceptions/MessageFormatException.java
/Users/fcastro/Desktop/keycloak-pr/keycloak/federation/sssd/src/main/java/org/freedesktop/dbus/Transport.java
/Users/fcastro/Desktop/keycloak-pr/keycloak/federation/sssd/src/main/java/cx/ath/matthew/debug/Debug.java
/Users/fcastro/Desktop/keycloak-pr/keycloak/federation/sssd/src/main/java/org/keycloak/federation/sssd/SSSDFederationProviderFactory.java
/Users/fcastro/Desktop/keycloak-pr/keycloak/federation/sssd/src/main/java/org/jvnet/libpam/impl/SolarisCLibrary.java
/Users/fcastro/Desktop/keycloak-pr/keycloak/federation/sssd/src/main/java/org/freedesktop/dbus/exceptions/NonFatalException.java
/Users/fcastro/Desktop/keycloak-pr/keycloak/federation/sssd/src/main/java/cx/ath/matthew/unix/USOutputStream.java
/Users/fcastro/Desktop/keycloak-pr/keycloak/federation/sssd/src/main/java/org/freedesktop/dbus/exceptions/MessageProtocolVersionException.java
/Users/fcastro/Desktop/keycloak-pr/keycloak/federation/sssd/src/main/java/org/jvnet/libpam/impl/FreeBSDPasswd.java
/Users/fcastro/Desktop/keycloak-pr/keycloak/federation/sssd/src/main/java/org/freedesktop/dbus/Variant.java
/Users/fcastro/Desktop/keycloak-pr/keycloak/federation/sssd/src/main/java/org/freedesktop/dbus/DBusConnection.java
/Users/fcastro/Desktop/keycloak-pr/keycloak/federation/sssd/src/main/java/org/freedesktop/dbus/SignalTuple.java
/Users/fcastro/Desktop/keycloak-pr/keycloak/federation/sssd/src/main/java/org/freedesktop/dbus/InternalSignal.java
/Users/fcastro/Desktop/keycloak-pr/keycloak/federation/sssd/src/main/java/org/freedesktop/dbus/DBusSerializable.java
/Users/fcastro/Desktop/keycloak-pr/keycloak/federation/sssd/src/main/java/org/freedesktop/dbus/MethodReturn.java
/Users/fcastro/Desktop/keycloak-pr/keycloak/federation/sssd/src/main/java/org/keycloak/federation/sssd/ReadonlySSSDUserModelDelegate.java
/Users/fcastro/Desktop/keycloak-pr/keycloak/federation/sssd/src/main/java/org/freedesktop/dbus/DBusInterface.java
/Users/fcastro/Desktop/keycloak-pr/keycloak/federation/sssd/src/main/java/org/jvnet/libpam/impl/PAMLibrary.java
/Users/fcastro/Desktop/keycloak-pr/keycloak/federation/sssd/src/main/java/org/freedesktop/dbus/DBusMemberName.java
/Users/fcastro/Desktop/keycloak-pr/keycloak/federation/sssd/src/main/java/org/freedesktop/dbus/types/DBusListType.java
/Users/fcastro/Desktop/keycloak-pr/keycloak/federation/sssd/src/main/java/org/freedesktop/dbus/exceptions/InternalMessageException.java
/Users/fcastro/Desktop/keycloak-pr/keycloak/federation/sssd/src/main/java/org/jvnet/libpam/impl/SolarisPasswd.java
/Users/fcastro/Desktop/keycloak-pr/keycloak/federation/sssd/src/main/java/org/jvnet/libpam/impl/BSDCLibrary.java
/Users/fcastro/Desktop/keycloak-pr/keycloak/federation/sssd/src/main/java/org/freedesktop/dbus/ObjectPath.java
/Users/fcastro/Desktop/keycloak-pr/keycloak/federation/sssd/src/main/java/org/freedesktop/dbus/exceptions/MarshallingException.java
/Users/fcastro/Desktop/keycloak-pr/keycloak/federation/sssd/src/main/java/org/freedesktop/dbus/exceptions/FatalDBusException.java
/Users/fcastro/Desktop/keycloak-pr/keycloak/federation/sssd/src/main/java/org/freedesktop/dbus/exceptions/DBusExecutionException.java
/Users/fcastro/Desktop/keycloak-pr/keycloak/federation/sssd/src/main/java/org/freedesktop/dbus/Path.java
/Users/fcastro/Desktop/keycloak-pr/keycloak/federation/sssd/src/main/java/org/keycloak/federation/sssd/api/Sssd.java
/Users/fcastro/Desktop/keycloak-pr/keycloak/federation/sssd/src/main/java/org/keycloak/federation/sssd/api/SSSDException.java
/Users/fcastro/Desktop/keycloak-pr/keycloak/federation/sssd/src/main/java/cx/ath/matthew/unix/UnixSocketAddress.java
/Users/fcastro/Desktop/keycloak-pr/keycloak/federation/sssd/src/main/java/org/jvnet/libpam/PAM.java
/Users/fcastro/Desktop/keycloak-pr/keycloak/federation/sssd/src/main/java/org/freedesktop/dbus/exceptions/MessageTypeException.java
/Users/fcastro/Desktop/keycloak-pr/keycloak/federation/sssd/src/main/java/org/jvnet/libpam/PAMException.java
/Users/fcastro/Desktop/keycloak-pr/keycloak/federation/sssd/src/main/java/org/freedesktop/dbus/DBusMap.java
/Users/fcastro/Desktop/keycloak-pr/keycloak/federation/sssd/src/main/java/org/freedesktop/dbus/ObjectTree.java
/Users/fcastro/Desktop/keycloak-pr/keycloak/federation/sssd/src/main/java/org/freedesktop/dbus/EfficientMap.java
/Users/fcastro/Desktop/keycloak-pr/keycloak/federation/sssd/src/main/java/org/jvnet/libpam/impl/LinuxCLibrary.java
/Users/fcastro/Desktop/keycloak-pr/keycloak/federation/sssd/src/main/java/org/freedesktop/dbus/types/DBusStructType.java
/Users/fcastro/Desktop/keycloak-pr/keycloak/federation/sssd/src/main/java/org/jvnet/libpam/impl/CLibrary.java
