org/keycloak/quarkus/runtime/configuration/Configuration$1.class
org/keycloak/quarkus/runtime/configuration/KeycloakPropertiesConfigSource.class
org/keycloak/quarkus/runtime/KeycloakRecorder$1.class
org/keycloak/quarkus/runtime/dev/QuarkusDevRequestFilter.class
org/keycloak/quarkus/runtime/cli/command/Tools.class
org/keycloak/quarkus/runtime/storage/database/Database$Vendor$2.class
org/keycloak/quarkus/runtime/configuration/mappers/VaultPropertyMappers.class
org/keycloak/quarkus/runtime/configuration/mappers/MetricsPropertyMappers.class
org/keycloak/quarkus/runtime/integration/web/NotFoundHandler.class
org/keycloak/quarkus/runtime/configuration/MicroProfileConfigProvider$MicroProfileScope.class
org/keycloak/quarkus/runtime/integration/web/QuarkusRequestFilter$1.class
META-INF/quarkus-javadoc.properties
org/keycloak/quarkus/runtime/cli/Help.class
org/keycloak/quarkus/runtime/integration/web/VertxClientCertificateLookup.class
org/keycloak/quarkus/runtime/cli/command/ShowConfig.class
org/keycloak/quarkus/runtime/cli/command/Build.class
org/keycloak/quarkus/runtime/configuration/mappers/PropertyMapper.class
org/keycloak/quarkus/runtime/cli/SubCommandListRenderer.class
org/keycloak/quarkus/runtime/configuration/mappers/ProxyPropertyMappers.class
org/keycloak/quarkus/runtime/cli/Picocli.class
org/keycloak/quarkus/runtime/configuration/mappers/DatabasePropertyMappers.class
org/keycloak/quarkus/runtime/configuration/Configuration.class
org/keycloak/quarkus/runtime/hostname/DefaultHostnameProvider.class
org/keycloak/quarkus/runtime/cli/command/AbstractExportImportCommand.class
org/keycloak/quarkus/runtime/integration/QuarkusPlatform.class
org/keycloak/quarkus/runtime/cli/OptionRenderer.class
org/keycloak/quarkus/runtime/cli/command/Export.class
org/keycloak/quarkus/runtime/configuration/KcEnvConfigSource.class
org/keycloak/quarkus/runtime/storage/database/liquibase/QuarkusJpaUpdaterProviderFactory.class
org/keycloak/quarkus/runtime/storage/database/jpa/QuarkusJpaConnectionProviderFactory$2.class
org/keycloak/quarkus/runtime/integration/jaxrs/KeycloakContextInjector.class
org/keycloak/quarkus/runtime/storage/database/Database$Vendor$1.class
org/keycloak/quarkus/runtime/Messages.class
org/keycloak/quarkus/runtime/themes/QuarkusFolderThemeProviderFactory.class
org/keycloak/quarkus/runtime/configuration/SysPropConfigSource.class
org/keycloak/quarkus/runtime/cli/command/ShowConfig$2.class
org/keycloak/quarkus/runtime/storage/database/liquibase/QuarkusLiquibaseConnectionProvider.class
org/keycloak/quarkus/runtime/integration/web/VertxClientCertificateLookupFactory.class
org/keycloak/quarkus/runtime/configuration/mappers/HostnamePropertyMappers.class
org/keycloak/quarkus/runtime/storage/database/liquibase/QuarkusJpaUpdaterProvider$1.class
org/keycloak/quarkus/runtime/configuration/mappers/HttpPropertyMappers.class
org/keycloak/quarkus/runtime/configuration/mappers/PropertyMappers$2.class
org/keycloak/quarkus/runtime/integration/jaxrs/ResteasyVertxProvider.class
org/keycloak/quarkus/runtime/storage/infinispan/QuarkusCacheManagerProvider.class
org/keycloak/quarkus/runtime/configuration/MicroProfileConfigProvider$MicroProfileScope$1.class
org/keycloak/quarkus/runtime/configuration/mappers/PropertyMapper$1.class
org/keycloak/quarkus/runtime/storage/database/jpa/QuarkusJpaConnectionProviderFactory$1.class
org/keycloak/quarkus/runtime/configuration/PersistedConfigSource.class
org/keycloak/quarkus/runtime/integration/QuarkusLifecycleObserver.class
org/keycloak/quarkus/runtime/cli/command/StartDev.class
org/keycloak/quarkus/runtime/integration/QuarkusKeycloakSessionFactory.class
org/keycloak/quarkus/runtime/cli/command/ShowConfig$1.class
org/keycloak/quarkus/runtime/cli/command/Import.class
org/keycloak/quarkus/runtime/configuration/mappers/PropertyMappers.class
org/keycloak/quarkus/runtime/configuration/mappers/PropertyMappers$1.class
org/keycloak/quarkus/runtime/cli/HelpFactory.class
org/keycloak/quarkus/runtime/KeycloakMain.class
org/keycloak/quarkus/runtime/configuration/PropertyMappingInterceptor.class
org/keycloak/quarkus/runtime/storage/database/liquibase/database/CustomMSSQLDatabase.class
org/keycloak/quarkus/runtime/storage/database/liquibase/QuarkusJpaUpdaterProvider.class
org/keycloak/quarkus/runtime/vault/QuarkusVaultProvider.class
org/keycloak/quarkus/runtime/configuration/KeycloakPropertiesConfigSource$InClassPath.class
org/keycloak/quarkus/runtime/storage/database/jpa/QuarkusJpaConnectionProviderFactory$MigrationStrategy.class
org/keycloak/quarkus/runtime/storage/database/liquibase/FastServiceLocator$1.class
org/keycloak/quarkus/runtime/configuration/KeycloakConfigSourceProvider.class
org/keycloak/quarkus/runtime/services/health/KeycloakReadyHealthCheck.class
org/keycloak/quarkus/runtime/cli/Help$1.class
org/keycloak/quarkus/runtime/cli/command/Completion.class
org/keycloak/quarkus/runtime/storage/infinispan/CacheInitializer.class
org/keycloak/quarkus/runtime/services/health/KeycloakMetricsHandler.class
org/keycloak/quarkus/runtime/services/resources/QuarkusWelcomeResource.class
org/keycloak/quarkus/runtime/storage/database/jpa/QuarkusJpaConnectionProviderFactory.class
org/keycloak/quarkus/runtime/configuration/MicroProfileConfigProvider.class
org/keycloak/quarkus/runtime/cli/command/AbstractCommand.class
org/keycloak/quarkus/runtime/Environment.class
org/keycloak/quarkus/runtime/configuration/ConfigArgsConfigSource.class
org/keycloak/quarkus/runtime/cli/command/HelpAllMixin.class
org/keycloak/quarkus/runtime/configuration/mappers/PropertyMappers$MappersConfig.class
org/keycloak/quarkus/runtime/storage/database/Database$Vendor.class
org/keycloak/quarkus/runtime/vault/QuarkusVaultProviderFactory.class
org/keycloak/quarkus/runtime/configuration/MicroProfileConfigProviderFactory.class
org/keycloak/quarkus/runtime/KeycloakRecorder.class
org/keycloak/quarkus/runtime/cli/Picocli$1.class
org/keycloak/quarkus/runtime/storage/infinispan/QuarkusInfinispanConnectionFactory.class
org/keycloak/quarkus/runtime/configuration/mappers/PropertyMapper$Builder.class
org/keycloak/quarkus/runtime/integration/web/QuarkusRequestFilter.class
org/keycloak/quarkus/runtime/cli/ExecutionExceptionHandler.class
org/keycloak/quarkus/runtime/storage/database/liquibase/KeycloakLogger.class
org/keycloak/quarkus/runtime/cli/command/Main.class
org/keycloak/quarkus/runtime/cli/command/AbstractStartCommand.class
org/keycloak/quarkus/runtime/cli/PropertyMapperParameterConsumer.class
org/keycloak/quarkus/runtime/configuration/mappers/ClusteringPropertyMappers.class
org/keycloak/quarkus/runtime/InitializationException.class
org/keycloak/quarkus/runtime/Environment$1.class
org/keycloak/quarkus/runtime/cli/Help$2.class
org/keycloak/quarkus/runtime/storage/database/liquibase/FastServiceLocator.class
org/keycloak/quarkus/runtime/storage/database/Database$Vendor$3.class
org/keycloak/quarkus/runtime/storage/database/Database.class
org/keycloak/quarkus/runtime/integration/jaxrs/QuarkusKeycloakApplication.class
org/keycloak/quarkus/runtime/configuration/mappers/ConfigCategory.class
org/keycloak/quarkus/runtime/cli/command/Start.class
org/keycloak/quarkus/runtime/transaction/QuarkusJtaTransactionManagerLookup.class
org/keycloak/quarkus/runtime/integration/jaxrs/ClientConnectionContextInjector.class
org/keycloak/quarkus/runtime/configuration/KeycloakPropertiesConfigSource$InFileSystem.class
org/keycloak/quarkus/runtime/KeycloakRecorder$2.class
