org/keycloak/adapters/servlet/OIDCFilterSessionStore.class
org/keycloak/adapters/servlet/FilterRequestAuthenticator$1.class
org/keycloak/adapters/servlet/OIDCFilterSessionStore$SerializableKeycloakAccount.class
org/keycloak/adapters/servlet/FilterRequestAuthenticator.class
org/keycloak/adapters/servlet/KeycloakOIDCFilter.class
org/keycloak/adapters/servlet/KeycloakOIDCFilter$IdMapperUserSessionManagement.class
org/keycloak/adapters/servlet/OIDCServletHttpFacade.class
org/keycloak/adapters/servlet/FilterRequestAuthenticator$2.class
org/keycloak/adapters/servlet/KeycloakOIDCFilter$1.class
