org/keycloak/common/util/RandomString.class
org/keycloak/common/util/StackUtil.class
org/keycloak/common/constants/KerberosConstants.class
org/keycloak/common/util/EnvUtil.class
org/keycloak/common/util/HostUtils.class
org/keycloak/common/Profile$Feature.class
org/keycloak/common/enums/AccountRestApiVersion.class
org/keycloak/common/util/StringPropertyReplacer$1.class
org/keycloak/common/util/NetworkUtils.class
org/keycloak/common/util/reflections/SetAccessiblePrivilegedAction.class
org/keycloak/common/util/KeystoreUtil$KeystoreFormat.class
org/keycloak/common/Profile$Type.class
org/keycloak/common/util/KerberosJdkProvider.class
org/keycloak/common/constants/ServiceAccountConstants.class
org/keycloak/common/Profile$PropertyResolver.class
org/keycloak/common/util/CollectionUtil.class
org/keycloak/common/util/SecretGenerator.class
org/keycloak/common/util/Encode.class
org/keycloak/common/util/KerberosJdkProvider$SunJDKProvider.class
org/keycloak/common/util/reflections/UnSetAccessiblePrivilegedAction.class
org/keycloak/common/util/MultivaluedHashMap.class
org/keycloak/common/util/KerberosJdkProvider$SunJDKProvider$1.class
org/keycloak/common/util/reflections/Reflections.class
org/keycloak/common/util/SystemEnvProperties.class
org/keycloak/common/util/MimeTypeUtil.class
org/keycloak/common/enums/RelativeUrlsUsed.class
org/keycloak/common/util/FindFile.class
org/keycloak/common/util/Retry$AdvancedRunnable.class
org/keycloak/common/util/StringPropertyReplacer.class
org/keycloak/common/util/StringPropertyReplacer$PropertyResolver.class
org/keycloak/common/enums/SslRequired$1.class
org/keycloak/common/util/StringSerialization$DeSerializerFunction$1.class
org/keycloak/common/util/StringSerialization$DeSerializerFunction.class
org/keycloak/common/util/DelegatingSerializationFilter$OnJava6To8.class
org/keycloak/common/util/StackUtil$1.class
org/keycloak/common/util/reflections/Types$2.class
org/keycloak/common/util/PemException.class
org/keycloak/common/util/Base64$OutputStream.class
org/keycloak/common/util/StringSerialization$Deserializer.class
org/keycloak/common/util/StringSerialization.class
org/keycloak/common/util/Base64Url.class
org/keycloak/common/util/KerberosJdkProvider$IBMJDKProvider$2.class
org/keycloak/common/util/DelegatingSerializationFilter$1.class
org/keycloak/common/util/ServerCookie.class
org/keycloak/common/util/KerberosSerializationUtils$KerberosSerializationException.class
org/keycloak/common/util/HtmlUtils.class
org/keycloak/common/util/KeystoreUtil.class
org/keycloak/common/util/DerUtils.class
org/keycloak/common/Profile$ProfileValue.class
org/keycloak/common/util/KeyUtils.class
org/keycloak/common/util/DelegatingSerializationFilter$SerializationFilterAdapter.class
org/keycloak/common/util/DelegatingSerializationFilter.class
org/keycloak/common/Profile$ProductValue.class
org/keycloak/common/util/Retry$Supplier.class
org/keycloak/common/util/StringSerialization$DeSerializerFunction$2.class
org/keycloak/common/ClientConnection.class
org/keycloak/common/util/CertificateUtils.class
org/keycloak/common/util/Base64$InputStream.class
org/keycloak/common/util/PathHelper.class
org/keycloak/common/util/DelegatingSerializationFilter$FilterPatternBuilder.class
org/keycloak/common/util/SecretGenerator$1.class
org/keycloak/common/util/StreamUtil.class
org/keycloak/common/util/Time.class
org/keycloak/common/util/StringSerialization$1.class
org/keycloak/common/util/Base64.class
org/keycloak/common/util/DelegatingSerializationFilter$EmptyFilterAdapter.class
org/keycloak/common/util/PathMatcher.class
org/keycloak/common/Profile$Config.class
org/keycloak/common/util/ObjectUtil.class
org/keycloak/common/Profile.class
org/keycloak/common/util/KerberosJdkProvider$IBMJDKProvider$1.class
org/keycloak/common/enums/SslRequired.class
org/keycloak/common/util/KerberosSerializationUtils.class
org/keycloak/common/util/Retry$ThrowableCallback.class
org/keycloak/common/util/reflections/Types.class
org/keycloak/common/util/StringPropertyReplacer$2.class
org/keycloak/common/util/UriUtils.class
org/keycloak/common/util/KeycloakUriBuilder.class
org/keycloak/common/constants/GenericConstants.class
org/keycloak/common/util/Retry.class
org/keycloak/common/util/PemUtils.class
org/keycloak/common/Profile$1.class
org/keycloak/common/util/KerberosJdkProvider$1.class
org/keycloak/common/util/KerberosJdkProvider$SunJDKProvider$2.class
org/keycloak/common/util/Environment.class
org/keycloak/common/util/DelegatingSerializationFilter$OnJavaAfter8.class
org/keycloak/common/VerificationException.class
org/keycloak/common/util/reflections/Types$1.class
org/keycloak/common/util/KerberosJdkProvider$IBMJDKProvider.class
org/keycloak/common/util/ConcurrentMultivaluedHashMap.class
org/keycloak/common/util/BouncyIntegration.class
org/keycloak/common/Version.class
org/keycloak/common/util/ServerCookie$SameSiteAttributeValue.class
org/keycloak/common/util/HttpPostRedirect.class
