org/keycloak/adapters/elytron/ElytronHttpFacade.class
org/keycloak/adapters/elytron/KeycloakServletExtension.class
org/keycloak/adapters/elytron/ElytronSessionTokenStore$1.class
org/keycloak/adapters/elytron/KeycloakSecurityRealm.class
org/keycloak/adapters/elytron/ElytronHttpFacade$1$1$1.class
org/keycloak/adapters/elytron/KeycloakHttpServerAuthenticationMechanism.class
org/keycloak/adapters/elytron/ElytronRequestAuthenticator.class
org/keycloak/adapters/elytron/ElytronHttpFacade$2$2.class
org/keycloak/adapters/elytron/ElytronHttpFacade$1.class
org/keycloak/adapters/elytron/ElytronHttpFacade$2$3.class
org/keycloak/adapters/elytron/SecurityIdentityUtil$1.class
org/keycloak/adapters/elytron/ElytronSessionTokenStore.class
org/keycloak/adapters/elytron/KeycloakConfigurationServletListener.class
org/keycloak/adapters/elytron/ElytronAccount.class
org/keycloak/adapters/elytron/ElytronTokeStore.class
org/keycloak/adapters/elytron/ElytronCookieTokenStore.class
org/keycloak/adapters/elytron/SecurityIdentityUtil.class
org/keycloak/adapters/elytron/KeycloakSecurityRealm$1.class
org/keycloak/adapters/elytron/ElytronHttpFacade$2$1.class
org/keycloak/adapters/elytron/ElytronHttpFacade$1$1.class
org/keycloak/adapters/elytron/ProtectedHttpServerExchange.class
org/keycloak/adapters/elytron/ElytronHttpFacade$2.class
org/keycloak/adapters/elytron/KeycloakHttpServerAuthenticationMechanismFactory.class
